<?xml version="1.0" encoding="UTF-8"?>
<svg width="12px" height="12px" viewBox="0 0 12 12" version="1.1" xmlns="http://www.w3.org/2000/svg" xmlns:xlink="http://www.w3.org/1999/xlink">
    <title>arrow/down copy</title>
    <defs>
        <polygon id="path-1" points="10.5132079 2 12 3.58870939 6 10 1.0369483e-12 3.58870939 1.48679212 2 6 6.82169775"></polygon>
    </defs>
    <g id="arrow/down-copy" stroke="none" stroke-width="1" fill="none" fill-rule="evenodd">
        <mask id="mask-2" fill="white">
            <use xlink:href="#path-1"></use>
        </mask>
        <use id="Mask" fill="#000000" fill-rule="nonzero" transform="translate(6.000000, 6.000000) rotate(-360.000000) translate(-6.000000, -6.000000) " xlink:href="#path-1"></use>
    </g>
</svg>