<svg xmlns="http://www.w3.org/2000/svg" width="126" height="36" viewBox="0 0 126 36">
    <path fill="#464646" fill-rule="evenodd" d="M0.631 0L125.979 0 125.979 36 18.722 36z" transform="matrix(1 0 0 -1 0 36)"/>
</svg>
