<svg xmlns="http://www.w3.org/2000/svg" xmlns:xlink="http://www.w3.org/1999/xlink" width="32" height="32" viewBox="0 0 32 32">
    <defs>
        <path id="k09mdzonua" d="M0 0H32V32H0z"/>
    </defs>
    <g fill="none" fill-rule="evenodd">
        <g>
            <mask id="myn0mpkscb" fill="#fff">
                <use xlink:href="#k09mdzonua"/>
            </mask>
            <path fill="#FFF" fill-rule="nonzero" d="M31 4H18.403L1 11.887v17.006h12.843L31 21.066V4zm-2.937 2.934v12.243l-14.859 6.78H3.935v-12.18l15.1-6.843h9.028z" mask="url(#myn0mpkscb)"/>
        </g>
    </g>
</svg>
