<svg xmlns="http://www.w3.org/2000/svg" width="24" height="24" viewBox="0 0 24 24">
    <g fill="none" fill-rule="evenodd">
        <circle cx="12" cy="12" r="12" fill="#1AC4A6" />
        <g fill="#FFF" fill-rule="nonzero">
            <path d="M9.355 3.526H-.278v9.633h9.633V3.526zM7.873 5.007v6.67H1.204v-6.67h6.669z" transform="translate(4.941 6.018)" />
            <path d="M4.721-.335L5.624.84.617 4.69-.286 3.515zM13.099 7.902L14.076 9.015 9.363 13.153 8.386 12.04z" transform="translate(4.941 6.018)" />
            <path d="M14.078-.347H4.724v9.354h9.354V-.347zm-1.482 1.481v6.391h-6.39v-6.39h6.39z" transform="translate(4.941 6.018)" />
            <path d="M5.003 7.687L5.926 8.846 1.202 12.604.28 11.444zM12.876.207L13.799 1.367 9.075 5.125 8.153 3.965z" transform="translate(4.941 6.018)" />
        </g>
    </g>
</svg>
